<?xml version="1.0" encoding="utf-8"?>
<!-- Generator: Adobe Illustrator 16.0.3, SVG Export Plug-In . SVG Version: 6.00 Build 0)  -->
<!DOCTYPE svg PUBLIC "-//W3C//DTD SVG 1.1//EN" "http://www.w3.org/Graphics/SVG/1.1/DTD/svg11.dtd">
<svg version="1.1" id="Warstwa_2" xmlns="http://www.w3.org/2000/svg" xmlns:xlink="http://www.w3.org/1999/xlink" x="0px" y="0px"
	 width="15px" height="25px" viewBox="0 0 15 25" enable-background="new 0 0 15 25" xml:space="preserve">
<path fill="#FFFFFF" d="M1.08,13.467l10.718,10.719c0.293,0.293,0.677,0.438,1.062,0.438c0.384,0,0.768-0.146,1.061-0.438
	c0.586-0.586,0.586-1.537,0-2.121l-9.66-9.659l2.955-2.955l4.583,4.583c0.293,0.293,0.677,0.438,1.062,0.438
	c0.384,0,0.768-0.146,1.061-0.438c0.586-0.585,0.586-1.536,0-2.121L9.337,7.33l4.396-4.395c0.586-0.585,0.586-1.536,0-2.121
	c-0.586-0.586-1.535-0.586-2.121,0L1.08,11.346C0.494,11.931,0.494,12.881,1.08,13.467z"/>
</svg>
