<?xml version="1.0" encoding="utf-8"?>
<!-- Generator: Adobe Illustrator 16.0.3, SVG Export Plug-In . SVG Version: 6.00 Build 0)  -->
<!DOCTYPE svg PUBLIC "-//W3C//DTD SVG 1.1//EN" "http://www.w3.org/Graphics/SVG/1.1/DTD/svg11.dtd">
<svg version="1.1" id="Warstwa_2" xmlns="http://www.w3.org/2000/svg" xmlns:xlink="http://www.w3.org/1999/xlink" x="0px" y="0px"
	 width="47.167px" height="4.921px" viewBox="0 0 47.167 4.921" enable-background="new 0 0 47.167 4.921" xml:space="preserve">
<path d="M3.526,0.709c-0.125,0-2.542,0.458-2.792,0.917S0.609,3.583,1.859,3.917s2.917-0.25,4.125,0.25s2.417-0.502,3.5-0.751
	s1.875-0.665,2.375,0.168s0.958,1.358,1.958,0.721s1.667-0.932,3.25-0.889s3.333,0.417,5.125,0.251s1.708-0.583,3.083-0.833
	c1.375-0.25,3-0.125,3.5,0.292s2.208,0.583,2.208,0.583s1.875-1.288,2.292-1.061s2.458,1.144,3.5,1.269s9.374,0.666,9.583,0
	c0.209-0.667,0.459-3.083-0.666-3.208s-16.626-0.5-17.084-0.333s-1.124,0.417-1.791,0.333s-1.875,0.792-2,0.5
	s-0.708-0.333-2.25-0.125s-2.292,0.958-3.292,0.708s-1.167-0.917-2.75-0.75s-4.333,0.083-5.042,0S3.526,0.709,3.526,0.709z"/>
</svg>
