<?xml version="1.0" encoding="utf-8"?>
<!-- Generator: Adobe Illustrator 16.0.3, SVG Export Plug-In . SVG Version: 6.00 Build 0)  -->
<!DOCTYPE svg PUBLIC "-//W3C//DTD SVG 1.1//EN" "http://www.w3.org/Graphics/SVG/1.1/DTD/svg11.dtd">
<svg version="1.1" xmlns="http://www.w3.org/2000/svg" xmlns:xlink="http://www.w3.org/1999/xlink" x="0px" y="0px" width="1790px"
	 height="184px" viewBox="0 0 1790 184" enable-background="new 0 0 1790 184" xml:space="preserve">
<g id="Warstwa_2">
	<rect x="-7.621" y="-4" fill="#FFFFFF" width="1800.621" height="195.931"/>
</g>
<g id="Warstwa_1">
	<g>
		<path fill="#DAE6E2" d="M1614.724-74.502v28.782c45.551,0,82.614,37.076,82.614,82.608c0,45.546-37.063,82.629-82.614,82.629
			c-45.543,0-82.597-37.083-82.597-82.629h-28.803c0,61.436,49.969,111.41,111.399,111.41s111.417-49.975,111.417-111.41
			C1726.141-24.538,1676.154-74.502,1614.724-74.502"/>
		<path fill="#DAE6E2" d="M1614.724-370.892c45.551,0,82.614,37.053,82.614,82.619c0,45.543-37.063,82.597-82.614,82.597v28.792
			c61.431,0,111.417-49.964,111.417-111.389c0-61.437-49.986-111.401-111.417-111.401s-111.399,49.965-111.399,111.401h28.803
			C1532.127-333.839,1569.181-370.892,1614.724-370.892"/>
		<path fill="#DAE6E2" d="M1614.724-332.079v87.599c24.19,0,43.789-19.609,43.789-43.793
			C1658.513-312.469,1638.914-332.079,1614.724-332.079"/>
		<path fill="#DAE6E2" d="M1658.536,36.888c0-24.175-19.622-43.804-43.813-43.804v87.631
			C1638.914,80.715,1658.536,61.074,1658.536,36.888"/>
		<path fill="#DAE6E2" d="M1437.741,213.896h353.977v-679.169h-353.977V213.896z M1466.541-436.459h148.183
			c81.723,0,148.189,66.478,148.189,148.186c0,81.717-66.467,148.184-148.189,148.184c-81.706,0-148.183-66.467-148.183-148.184
			V-436.459z M1466.541-191.67c18.97,28.99,46.178,52.129,78.335,65.972c-32.157,13.872-59.365,37.002-78.335,65.991V-191.67z
			 M1466.541,185.093V36.888c0-81.687,66.477-148.185,148.183-148.185c81.723,0,148.189,66.498,148.189,148.185
			c0,81.729-66.467,148.205-148.189,148.205H1466.541z M1762.913,185.093h-51.579c20.541-13.438,38.145-31.039,51.579-51.589
			V185.093z M1762.913-59.707c-18.966-28.989-46.184-52.12-78.331-65.991c32.147-13.843,59.365-36.982,78.331-65.972V-59.707z
			 M1711.334-436.459h51.579v51.59C1749.479-405.432,1731.875-423.032,1711.334-436.459"/>
	</g>
	<g>
		<path fill="#DAE6E2" d="M175.252,258.323v-28.782c-45.551,0-82.614-37.076-82.614-82.607c0-45.547,37.063-82.629,82.614-82.629
			c45.543,0,82.597,37.083,82.597,82.629h28.803c0-61.436-49.969-111.411-111.399-111.411S63.835,85.498,63.835,146.934
			C63.835,208.359,113.821,258.323,175.252,258.323"/>
		<path fill="#DAE6E2" d="M175.252,554.713c-45.551,0-82.614-37.053-82.614-82.619c0-45.543,37.063-82.596,82.614-82.596v-28.793
			c-61.431,0-111.417,49.965-111.417,111.389c0,61.438,49.986,111.402,111.417,111.402s111.399-49.965,111.399-111.402h-28.803
			C257.849,517.66,220.795,554.713,175.252,554.713"/>
		<path fill="#DAE6E2" d="M175.252,515.899v-87.599c-24.19,0-43.789,19.609-43.789,43.793
			C131.463,496.29,151.062,515.899,175.252,515.899"/>
		<path fill="#DAE6E2" d="M131.439,146.934c0,24.174,19.622,43.803,43.813,43.803v-87.631
			C151.062,103.105,131.439,122.747,131.439,146.934"/>
		<path fill="#DAE6E2" d="M352.234-30.076H-1.742v679.169h353.977V-30.076z M323.435,620.281H175.252
			c-81.723,0-148.189-66.479-148.189-148.188c0-81.717,66.467-148.184,148.189-148.184c81.706,0,148.183,66.467,148.183,148.184
			V620.281z M323.435,375.49c-18.97-28.989-46.178-52.129-78.335-65.972c32.157-13.872,59.365-37.002,78.335-65.991V375.49z
			 M323.435-1.272v148.206c0,81.687-66.477,148.184-148.183,148.184c-81.723,0-148.189-66.497-148.189-148.184
			c0-81.729,66.467-148.206,148.189-148.206H323.435z M27.063-1.272h51.579C58.101,12.166,40.497,29.767,27.063,50.317V-1.272z
			 M27.063,243.527c18.966,28.989,46.184,52.119,78.331,65.991c-32.147,13.843-59.365,36.982-78.331,65.972V243.527z
			 M78.642,620.281H27.063v-51.592C40.497,589.254,58.101,606.854,78.642,620.281"/>
	</g>
</g>
<g id="Warstwa_3">
	<rect x="311.793" y="-15.276" fill="#FFFFFF" width="100" height="225"/>
	<rect x="1379.275" y="-15.276" fill="#FFFFFF" width="100" height="225"/>
</g>
</svg>
