<?xml version="1.0" encoding="UTF-8" standalone="no"?>
<!DOCTYPE svg PUBLIC "-//W3C//DTD SVG 1.1//EN" "http://www.w3.org/Graphics/SVG/1.1/DTD/svg11.dtd">
<svg width="68px" height="16px" version="1.1" xmlns="http://www.w3.org/2000/svg" xmlns:xlink="http://www.w3.org/1999/xlink" xml:space="preserve" xmlns:serif="http://www.serif.com/" style="fill-rule:evenodd;clip-rule:evenodd;stroke-linejoin:round;stroke-miterlimit:1.41421;">
    <g id="Layer1" transform="matrix(1,0,0,1,-7.5,-4)">
        <path d="M8.042,12C7.388,8.633 9.223,6.069 10.274,6.286C11.871,6.616 10.389,7.402 14.391,13.058C15.649,14.836 17.393,17.83 15.045,18.676C12.698,19.523 8.696,15.367 8.042,12Z" style="fill:rgb(189,196,207);"/>
        <path d="M12.054,5.478C11.891,6.955 13.083,7.094 15.315,11.404C16.312,13.329 16.815,16.252 18.586,16.29C20.356,16.329 22.118,11.549 18.932,7.517C16.469,4.4 12.196,4.188 12.054,5.478Z" style="fill:rgb(189,196,207);"/>
        <path d="M35.016,6.786C34.086,7.669 41.173,12.981 40.634,14.328C40.162,15.508 34.208,14.983 34.362,16.291C34.514,17.58 40.019,16.098 43.405,16.868C44.834,17.192 45.521,18.022 46.252,17.252C46.983,16.483 45.479,15.549 45.252,13.789C44.944,11.404 45.712,5.258 44.405,5.054C43.377,4.894 43.905,11.981 42.597,12C41.288,12.019 35.987,5.864 35.016,6.786Z" style="fill:rgb(189,196,207);"/>
        <path d="M67.146,9.826C65.556,9.884 63.645,12.519 63.76,14.328C63.876,16.137 65.376,17.541 67.416,17.57C69.455,17.599 73.149,15.405 73.303,13.982C73.457,12.558 68.737,9.768 67.146,9.826Z" style="fill:rgb(189,196,207);"/>
        <path d="M60.951,14.674C61.368,14.869 62.644,14.607 62.721,13.698C62.798,12.789 61.403,11.178 60.22,12.53C59.489,13.366 60.534,14.48 60.951,14.674Z" style="fill:rgb(189,196,207);"/>
        <g transform="matrix(1.15352,0,0,1.24014,-8.03951,-7.76074)">
            <path d="M60.951,14.674C61.368,14.869 62.644,14.607 62.721,13.698C62.798,12.789 61.403,11.178 60.22,12.53C59.489,13.366 60.534,14.48 60.951,14.674Z" style="fill:rgb(189,196,207);"/>
        </g>
        <g transform="matrix(1.321,0,0,1.3845,-14.3281,-11.577)">
            <path d="M60.951,14.674C61.368,14.869 62.644,14.607 62.721,13.698C62.798,12.789 61.403,11.178 60.22,12.53C59.489,13.366 60.534,14.48 60.951,14.674Z" style="fill:rgb(189,196,207);"/>
        </g>
        <g transform="matrix(0.888347,0,0,0.764435,16.9317,-0.751386)">
            <path d="M60.951,14.674C61.368,14.869 62.644,14.607 62.721,13.698C62.798,12.789 61.403,11.178 60.22,12.53C59.489,13.366 60.534,14.48 60.951,14.674Z" style="fill:rgb(189,196,207);"/>
        </g>
    </g>
</svg>
