<?xml version="1.0" encoding="UTF-8" standalone="no"?>
<!DOCTYPE svg PUBLIC "-//W3C//DTD SVG 1.1//EN" "http://www.w3.org/Graphics/SVG/1.1/DTD/svg11.dtd">
<svg width="9px" height="12px" version="1.1" xmlns="http://www.w3.org/2000/svg" xmlns:xlink="http://www.w3.org/1999/xlink" xml:space="preserve" xmlns:serif="http://www.serif.com/" style="fill-rule:evenodd;clip-rule:evenodd;stroke-linejoin:round;stroke-miterlimit:1.41421;">
    <g transform="matrix(9.54614e-17,1.559,-1.39074,8.51584e-17,9.88139,-1.01551)">
        <g id="Layer1">
            <path d="M3.876,0.985C4.015,0.766 4.249,0.634 4.5,0.634C4.751,0.634 4.985,0.766 5.124,0.985C5.933,2.263 7.345,4.492 8.223,5.878C8.376,6.12 8.39,6.431 8.26,6.688C8.129,6.945 7.875,7.105 7.599,7.105C5.91,7.105 3.09,7.105 1.401,7.105C1.125,7.105 0.871,6.945 0.74,6.688C0.61,6.431 0.624,6.12 0.777,5.878C1.655,4.492 3.067,2.263 3.876,0.985Z" style="fill:rgb(105,154,42);"/>
        </g>
    </g>
</svg>
