<?xml version="1.0" encoding="utf-8"?>
<!-- Generator: Adobe Illustrator 16.0.3, SVG Export Plug-In . SVG Version: 6.00 Build 0)  -->
<!DOCTYPE svg PUBLIC "-//W3C//DTD SVG 1.1//EN" "http://www.w3.org/Graphics/SVG/1.1/DTD/svg11.dtd">
<svg version="1.1" id="Warstwa_1" xmlns:serif="http://www.serif.com/"
	 xmlns="http://www.w3.org/2000/svg" xmlns:xlink="http://www.w3.org/1999/xlink" x="0px" y="0px" width="19px" height="35px"
	 viewBox="0 0 19 35" enable-background="new 0 0 19 35" xml:space="preserve">
<g transform="matrix(-1,0,0,0.972616,19,-4.86438e-17)">
	<g id="Layer2">
		<path fill="#B0BBC2" d="M15.206,17.993L15.206,17.993L0.307,2.588C-0.423,1.596,0.215,0.067,1.534,0
			c0.047,0.002,0.095,0.004,0.142,0.006c0.611,0.079,0.633,0.122,1.01,0.478l15.897,16.427c0.272,0.308,0.411,0.694,0.417,1.082l0,0
			c-0.005,0.387-0.145,0.773-0.417,1.082L2.686,35.501c-0.377,0.356-0.398,0.4-1.008,0.478c-0.049,0.002-0.096,0.004-0.144,0.006
			c-1.319-0.067-1.957-1.596-1.228-2.588L15.206,17.993z"/>
	</g>
</g>
</svg>
