<?xml version="1.0" encoding="UTF-8" standalone="no"?>
<!DOCTYPE svg PUBLIC "-//W3C//DTD SVG 1.1//EN" "http://www.w3.org/Graphics/SVG/1.1/DTD/svg11.dtd">
<svg width="19px" height="35px" version="1.1" xmlns="http://www.w3.org/2000/svg" xmlns:xlink="http://www.w3.org/1999/xlink" xml:space="preserve" xmlns:serif="http://www.serif.com/" style="fill-rule:evenodd;clip-rule:evenodd;stroke-linejoin:round;stroke-miterlimit:1.41421;">
    <g transform="matrix(-1,0,0,0.972616,19,-4.86438e-17)">
        <g id="Layer2">
            <path d="M15.206,17.993L15.205,17.993L0.307,2.588C-0.423,1.596 0.215,0.067 1.534,0C1.581,0.002 1.629,0.004 1.676,0.006C2.287,0.085 2.309,0.128 2.686,0.484L18.583,16.911C18.855,17.219 18.994,17.605 19,17.993L19,17.993C18.995,18.38 18.855,18.766 18.583,19.075L2.686,35.501C2.309,35.858 2.287,35.901 1.677,35.98C1.629,35.982 1.582,35.984 1.534,35.985C0.215,35.918 -0.423,34.389 0.307,33.397L15.206,17.993Z" style="fill:white;"/>
        </g>
    </g>
</svg>
