<?xml version="1.0" encoding="utf-8"?>
<!-- Generator: Adobe Illustrator 16.0.3, SVG Export Plug-In . SVG Version: 6.00 Build 0)  -->
<!DOCTYPE svg PUBLIC "-//W3C//DTD SVG 1.1//EN" "http://www.w3.org/Graphics/SVG/1.1/DTD/svg11.dtd">
<svg version="1.1" id="Warstwa_7" xmlns="http://www.w3.org/2000/svg" xmlns:xlink="http://www.w3.org/1999/xlink" x="0px" y="0px"
	 width="50px" height="50px" viewBox="0 0 50 50" enable-background="new 0 0 50 50" xml:space="preserve">
<g>
	<path d="M43.688,9.207c0,0-36.083-3.195-39.09,1.785c-3.007,4.98-3.101,26.405,0.469,29.787c3.571,3.383,37.587,2.444,39.467,0.658
		c1.878-1.785,4.134-11.746,2.818-22.74c-1.315-10.994-3.007-7.987-2.632-9.303c0.376-1.315,3.759,0.281,4.229,10.243
		c0.471,9.96,0.753,21.049-4.229,23.491c-4.979,2.443-38.526,1.879-41.439-1.222c-2.913-3.1-3.759-27.156,0.282-32.231
		C7.604,4.601,42.56,8.266,43.219,8.361C43.875,8.454,43.688,9.207,43.688,9.207z"/>
	<path d="M2.718,34.953c0,0,0.658,4.51,4.041,5.544s16.256,1.973,17.008,1.88c0.751-0.095,0.47-0.377-0.658-0.564
		c-1.127-0.188-14.283-1.504-16.256-3.101c-2.076-1.681-4.604-7.235-4.698-10.431C2.061,25.086,2.718,34.953,2.718,34.953z"/>
	<path d="M7.979,8.736c0,0-2.725,3.853-3.1,6.202c-0.376,2.349-1.786-0.564,0.375-4.511S7.979,8.736,7.979,8.736z"/>
	<path d="M43.688,8.548c0,0-4.228-1.033-13.343-1.691c-9.115-0.658-9.679-0.564-10.431-0.658c-0.752-0.094-0.846-0.752,1.879-0.846
		c2.725-0.094,21.143,1.691,22.176,2.443c1.033,0.752,1.127,1.691-1.504,1.315C39.836,8.736,43.688,8.548,43.688,8.548z"/>
	<path d="M18.724,34.797c0,0-0.626-18.167,0-18.292c0.626-0.126,15.349,8.957,14.91,9.396c-0.439,0.438-14.096,8.583-14.284,8.583
		s-0.564,0,0.313-0.752c0.877-0.752,11.965-7.518,12.153-7.894c0.188-0.376-12.215-7.956-12.403-7.391
		c-0.188,0.563-0.063,14.47-0.125,14.909C19.225,33.794,18.912,34.859,18.724,34.797z"/>
	<path d="M21.292,31.915c0,0,10.273-5.639,10.524-6.077c0.251-0.438-0.5-0.563-0.689-0.688c-0.187-0.125-9.396,5.825-9.772,6.201
		S21.292,31.915,21.292,31.915z"/>
	<path d="M45.285,37.303c0,0,1.754-3.821,2.569-11.59c0.813-7.768-1.316-10.023-1.379-9.522c-0.063,0.501,1.003,6.954,0.564,10.274
		s-2.444,10.274-2.382,10.712C44.721,37.615,45.285,37.303,45.285,37.303z"/>
</g>
</svg>
