<?xml version="1.0" encoding="utf-8"?>
<!-- Generator: Adobe Illustrator 16.0.3, SVG Export Plug-In . SVG Version: 6.00 Build 0)  -->
<!DOCTYPE svg PUBLIC "-//W3C//DTD SVG 1.1//EN" "http://www.w3.org/Graphics/SVG/1.1/DTD/svg11.dtd">
<svg version="1.1" xmlns="http://www.w3.org/2000/svg" xmlns:xlink="http://www.w3.org/1999/xlink" x="0px" y="0px" width="15px"
	 height="24px" viewBox="0 0 15 24" enable-background="new 0 0 15 24" xml:space="preserve">
<g id="Warstwa_2">
</g>
<g id="Warstwa_3">
	<polygon fill="#D52228" points="7,15.063 7,-0.001 8,-0.001 8,15.065 15.001,15.087 7.52,23.999 0,15.041 	"/>
</g>
</svg>
