<?xml version="1.0" encoding="utf-8"?>
<!-- Generator: Adobe Illustrator 16.0.3, SVG Export Plug-In . SVG Version: 6.00 Build 0)  -->
<!DOCTYPE svg PUBLIC "-//W3C//DTD SVG 1.1//EN" "http://www.w3.org/Graphics/SVG/1.1/DTD/svg11.dtd">
<svg version="1.1" xmlns="http://www.w3.org/2000/svg" xmlns:xlink="http://www.w3.org/1999/xlink" x="0px" y="0px" width="24px"
	 height="15px" viewBox="0 0 24 15" enable-background="new 0 0 24 15" xml:space="preserve">
<g id="Warstwa_1">
	<g id="Warstwa_2">
	</g>
	<g id="Warstwa_3">
		<g>
			<polygon fill="#5D5F5F" points="8.937,7 24,7 24,8 8.934,8 8.912,15 0,7.519 8.958,0 			"/>
		</g>
	</g>
</g>
<g id="Warstwa_2_1_">
</g>
</svg>
