<?xml version="1.0" encoding="utf-8"?>
<!-- Generator: Adobe Illustrator 19.0.0, SVG Export Plug-In . SVG Version: 6.00 Build 0)  -->
<svg version="1.1" xmlns="http://www.w3.org/2000/svg" xmlns:xlink="http://www.w3.org/1999/xlink" x="0px" y="0px"
	 viewBox="0 0 33 38" style="enable-background:new 0 0 33 38;" xml:space="preserve">
<style type="text/css">
	.st0{fill:#5F5F67;}
</style>
<g id="Warstwa_1">
</g>
<g id="Warstwa_2">
	<g id="surface1">
		<path id="XMLID_2_" class="st0" d="M8.3,0c-2.7,0-5,2.2-5,5s2.2,5,5,5s5-2.2,5-5S11,0,8.3,0z M8.3,1.7c1.8,0,3.3,1.5,3.3,3.3
			s-1.5,3.3-3.3,3.3S5,6.8,5,5S6.4,1.7,8.3,1.7z M4.5,10.7c-2.5,0-4.5,2-4.5,4.5v9.3c0,0,0,0.1,0,0.1v0.1c0,0.1,0,0.2,0,0.2
			c0.1,1.2,1.2,2.2,2.5,2.2c0.3,0,0.6-0.1,0.8-0.2v8c0,1.6,1.3,2.9,2.9,2.9c0.8,0,1.5-0.3,2.1-0.9c0.5,0.5,1.3,0.9,2.1,0.9
			c1.6,0,2.9-1.3,2.9-2.9v-8c0.3,0.1,0.5,0.2,0.8,0.2c1.3,0,2.4-1.1,2.5-2.3c0,0,0-0.1,0-0.1c0,0,0-0.1,0-0.1v-9.4
			c0-2.5-2-4.5-4.5-4.5H4.5z M4.5,12.4H12c1.6,0,2.9,1.3,2.9,2.9v9.4c0,0,0,0.1,0,0.1v0.1c0,0,0,0.1,0,0.1c0,0.4-0.4,0.7-0.8,0.7
			c-0.5,0-0.8-0.4-0.8-0.8v-0.1c0,0,0-0.1,0-0.1v-7.3h-1.7v7.3c0,0,0,0.1,0,0.1v10.4c0,0.7-0.5,1.2-1.2,1.2c-0.7,0-1.2-0.5-1.2-1.1
			c0,0,0-0.1,0-0.1v-9.5H7.4v9.6c-0.1,0.6-0.6,1.1-1.2,1.1c-0.7,0-1.2-0.5-1.2-1.2V17.3H3.3v7.3c0,0,0,0.1,0,0.1v0.1
			c0,0.5-0.4,0.8-0.8,0.8c-0.4,0-0.8-0.3-0.8-0.8c0,0,0,0,0-0.1c0-0.1,0-0.1,0-0.2v-9.3C1.7,13.7,2.9,12.4,4.5,12.4z"/>
	</g>
	<g id="surface1_1_">
		<path id="XMLID_1_" class="st0" d="M24.7,0c-2.7,0-5,2.2-5,5s2.2,5,5,5s5-2.2,5-5S27.5,0,24.7,0z M24.7,1.7C26.6,1.7,28,3.1,28,5
			s-1.5,3.3-3.3,3.3S21.4,6.8,21.4,5S22.9,1.7,24.7,1.7z M21,10.7c-2.5,0-4.5,2-4.5,4.5v9.3c0,0,0,0.1,0,0.1v0.1c0,0.1,0,0.2,0,0.2
			c0.1,1.2,1.2,2.2,2.5,2.2c0.3,0,0.6-0.1,0.8-0.2v8c0,1.6,1.3,2.9,2.9,2.9c0.8,0,1.5-0.3,2.1-0.9c0.5,0.5,1.3,0.9,2.1,0.9
			c1.6,0,2.9-1.3,2.9-2.9v-8c0.3,0.1,0.5,0.2,0.8,0.2c1.3,0,2.4-1.1,2.5-2.3c0,0,0-0.1,0-0.1c0,0,0-0.1,0-0.1v-9.4
			c0-2.5-2-4.5-4.5-4.5H21z M21,12.4h7.4c1.6,0,2.9,1.3,2.9,2.9v9.4c0,0,0,0.1,0,0.1v0.1c0,0,0,0.1,0,0.1c0,0.4-0.4,0.7-0.8,0.7
			c-0.5,0-0.8-0.4-0.8-0.8v-0.1c0,0,0-0.1,0-0.1v-7.3H28v7.3c0,0,0,0.1,0,0.1v10.4c0,0.7-0.5,1.2-1.2,1.2c-0.7,0-1.2-0.5-1.2-1.1
			c0,0,0-0.1,0-0.1v-9.5h-1.7v9.6c-0.1,0.6-0.6,1.1-1.2,1.1c-0.7,0-1.2-0.5-1.2-1.2V17.3h-1.7v7.3c0,0,0,0.1,0,0.1v0.1
			c0,0.5-0.4,0.8-0.8,0.8c-0.4,0-0.8-0.3-0.8-0.8c0,0,0,0,0-0.1c0-0.1,0-0.1,0-0.2v-9.3C18.1,13.7,19.4,12.4,21,12.4z"/>
	</g>
</g>
</svg>
